<?xml version="1.0" encoding="utf-8"?>
<!-- Generator: Adobe Illustrator 22.0.0, SVG Export Plug-In . SVG Version: 6.00 Build 0)  -->
<svg version="1.1" id="レイヤー_1" xmlns="http://www.w3.org/2000/svg" xmlns:xlink="http://www.w3.org/1999/xlink" x="0px"
	 y="0px" viewBox="0 0 208 56" style="enable-background:new 0 0 208 56;" xml:space="preserve">
<style type="text/css">
	.st0{fill:none;}
	.st1{fill:#E50012;}
	.st2{fill:#231815;}
</style>
<g>
	<g>
		<path class="st0" d="M57,28c0,15.5-12.5,28-28,28C13.5,56,1,43.5,1,28C1,12.5,13.5,0,29,0C44.5,0,57,12.5,57,28z"/>
		<g>
			<polygon class="st1" points="29.4,45.3 31.6,45.3 31.5,42.8 			"/>
			<path class="st1" d="M56.9,30.5c0.2-1.8,0.1-4.3-0.1-6.2c0,0,0,0,0,0c-0.6,2.7-2.3,6.4-6.2,9.4c0,0-0.1,0,0,0
				c3.3-3.6,5.3-8,5.6-12.5c-0.6-2.5-1.6-4.9-2.8-7c0,0-0.1,0,0,0c0.7,4.6-0.4,10.6-4.8,15.5c0,0-0.1,0-0.1,0
				c3.8-5.5,4.8-12.2,3.2-18.3C46.4,4.5,38.2,0,29,0C19.8,0,11.6,4.5,6.5,11.4c-1.7,6-0.7,12.7,3.2,18.3c0,0,0,0.1,0,0
				c-4.4-4.9-5.5-11-4.8-15.5c0,0,0,0,0,0c-1.2,2.1-2.2,4.5-2.8,7c0.3,4.5,2.3,8.9,5.6,12.5c0,0,0,0.1,0,0c-3.8-3-5.6-6.7-6.2-9.4
				c0,0,0,0,0,0c-0.3,1.9-0.3,4.4-0.1,6.2c1,3,3,5.6,5.1,7.4c0,0,0,0.1,0,0.1c-2.3-1.5-3.7-2.9-4.6-4.2c0,0,0,0,0,0
				C4.2,46.3,15.4,56,29,56c13.6,0,24.8-9.7,27.4-22.3c0,0,0,0,0,0c-0.9,1.3-2.2,2.7-4.6,4.2c0,0-0.1,0,0-0.1
				C53.9,36,55.9,33.5,56.9,30.5z M18.6,48.7c-1,0-1.9-0.1-2.7-0.3l0.7-1.7c1.7,0.2,3.2,0.1,3.8-1.5l1.9-4.8h3.8l-2,5.3
				C23,48.5,20.4,48.7,18.6,48.7z M31.7,48.5l-0.1-1.6h-3.4l-1.3,1.6h-3.2l6.4-7.4c0.3-0.4,0.8-0.6,1.2-0.6h3.4l0.8,8H31.7z
				 M45.2,48.5h-8.7l3.1-8h3.8L41,46.8h4.9L45.2,48.5z M41.7,31.6c-5.7,5.6-14.3,2-13.4-4.8c0.7-5.3,7.1-10.5,12-13.4c0,0,0,0,0-0.1
				c-0.6-0.6-2-2-2.8-3c-2.4-2.9-6.5-3-9,0.2l-14.1,1.3c-0.1,0-0.1,0.1,0,0.1l15.1,0.9c2.7,0.2,3.5,2.6,1,4.5
				c-9.6,7.3-11.3,15-9.2,21c0,0,0,0.1-0.1,0c-0.9-1.2-1.5-2.8-1.9-4.4C14.7,31,11,25.5,11,18.7c0-9.9,8.1-18,18-18
				c10,0,18,8.1,18,18C47,24.1,44.7,28.6,41.7,31.6z"/>
		</g>
	</g>
	<g>
		<g>
			<path class="st2" d="M80.6,47.9c-4.8,0-8.9-0.5-12.4-1.3l3-7.9c8.2,1,15.1,0.2,17.9-6.9l8.7-22.5h17.8L106,34.2
				C101.1,46.9,89.1,47.9,80.6,47.9z"/>
			<path class="st2" d="M140.5,20.2l0.4,11.9h-10L140.5,20.2z M159.3,46.7l-3.6-37.3h-15.9c-1.9,0-4.1,1.1-5.5,2.8l-29.8,34.6h14.7
				l5.9-7.3h16.1l0.3,7.3H159.3z"/>
			<polygon class="st2" points="204.5,46.7 164.1,46.7 178.4,9.3 196.2,9.3 184.9,38.7 207.5,38.7 			"/>
		</g>
	</g>
</g>
</svg>
