<?xml version="1.0" encoding="utf-8"?>
<!-- Generator: Adobe Illustrator 20.1.0, SVG Export Plug-In . SVG Version: 6.00 Build 0)  -->
<svg version="1.1" id="レイヤー_1" xmlns="http://www.w3.org/2000/svg" xmlns:xlink="http://www.w3.org/1999/xlink" x="0px"
	 y="0px" viewBox="0 0 279.1 71.1" style="enable-background:new 0 0 279.1 71.1;" xml:space="preserve">
<style type="text/css">
	.st0{fill:#FAC300;}
</style>
<rect class="st0" width="279.1" height="71.1"/>
<g>
	<path d="M221.8,35.3c0-9.9,7.8-17.9,18.6-17.9c10.6,0,18.6,8.2,18.6,18.1c0,9.9-8.3,18-18.6,17.9C229.5,53.2,221.8,45.2,221.8,35.3
		z M240.4,60.5c16.2,0,26.9-11.4,26.9-25.1c0-13-9.7-25-27.3-25c-15.6,0-26.4,11.1-26.4,25C213.6,49.1,224.6,60.5,240.4,60.5z"/>
	<polygon points="150.4,19 150.4,11.9 126.3,11.9 126.3,19 134.3,19 134.3,52.1 126.3,52.1 126.3,59.2 150.4,59.2 150.4,52.1 
		142.6,52.1 142.6,19 	"/>
	<polygon points="66.9,11.9 66.9,19 75.2,19 75.2,52.1 66.9,52.1 66.9,59.2 112.6,59.2 112.6,59.2 120.9,59.2 120.9,43.1 
		112.6,43.1 112.6,52.1 83.5,52.1 83.5,39.3 96.5,39.3 96.5,44.3 104.8,44.3 104.8,26.8 96.5,26.8 96.5,32.2 83.5,32.2 83.5,19 
		112.6,19 112.6,28.5 120.9,28.5 120.9,12 	"/>
	<path d="M54.9,45.8c0,4-3.7,7.8-15.3,7.8c-5.4,0-18.2-2-18.3-7.6v-3.1H13v16.3h8.3v-2.8c2.5,1.2,9.5,4.2,18.8,4.3
		c9.2,0,16.2-1.8,19.3-5.5c2.1-2.6,3.8-5.6,3.8-9.2c0-6.5-4.7-11.8-10.9-13c-1.1-0.2-5.4-0.8-7.7-0.8c-7.3-0.1-13.8-0.6-18.8-1.2
		c-3.4-0.4-5.8-2-5.6-5.7c0.1-1.6,0.7-3.1,1.7-4.1c2.8-2.7,8-3.6,14-3.4c6.1,0.2,10.4,1.8,13.9,3.4c2.9,1.3,3.9,3,3.9,5.2v2.2H62
		V11.9h-8.3v3.4c-2.8-1.7-9.8-4.5-19.3-4.6c-9.7,0-15.1,1.9-18.4,5c-2.4,2.2-4.1,5.9-4.1,9.4c0,5.7,3.1,9.7,7.7,11.4
		c5,1.8,15.5,2.1,20.5,2.3c4.7,0.2,9,0,12,1.7C53.8,41.7,54.9,43.7,54.9,45.8z"/>
	<polygon points="190.4,59.2 215,59.2 215,59.2 215,52.1 208.1,52.1 190.8,31.5 207,19 214.1,19 214.1,11.9 190.4,11.9 190.4,19 
		195.4,19 171.6,37.2 171.6,19 179.8,19 179.8,11.9 155.2,11.9 155.2,19 163.4,19 163.4,52.1 155.2,52.1 155.2,59.2 179.8,59.2 
		179.8,52.1 171.6,52.1 171.6,46.2 184.1,36.6 197.1,52.1 190.4,52.1 	"/>
</g>
</svg>
